…
{% highlight r %}
RCT[ ,1]         # first column (all rows)
{% endhighlight %}



{% highlight text %}
## # A tibble: 64 x 1
##    Pt_No
##    <int>
##  1     1
##  2     2
##  3     3
##  4     4
##  5     5
##  6     6
##  7     7
##  8     8
##  9     9
## 10    10
## # ... with 54 more rows
…
## Sheet successfully identified: "rct-clean"

So far so good, but `sheet` isn't a data frame, it's just a connection
to that sheet. There's one more step.

df <- gs_read(gsheet)

## Accessing worksheet titled 'breast-clean.csv'.

## No encoding supplied: defaulting to UTF-8.

df

## # A tibble: 64 × 20
##       id   recruit   age gender random  ps0h  ps3h  ps12 ps24h ps168h
##    <int>     <chr> <int>  <chr>  <chr> <int> <int> <int> <int>  <int>
## 1      1  1/1/2014    80      F  drain     0     0     0     2      2
## 2      2  1/2/2014    72      f  drain     1     2     2     1      2
## 3      3  1/3/2014    72      F  drain     0     1     0     0      0
## 4      4  1/4/2014    55      F  drain     0     0     0     0      1
## 5      5  1/5/2014    84      f   skin     0     0     2     3     NA
## 6      6  1/6/2014    72      F   skin     1     2     2     2     NA
## 7      7  1/7/2014    65      F   skin     0     1     0     0      0
## 8      8  1/8/2014    75      F  drain     0     0     0     0      0
## 9      9  1/9/2014    64      F   skin     2     2     1     1      2
## 10    10 1/10/2014    53      F  drain     0     1     0     0      0
## # ... with 54 more rows, and 10 more variables: move12h <int>,
## #   move24h <int>, move168h <int>, tylenol <chr>, codeine <chr>,
## #   oramorph <chr>, other <chr>, los <int>, los_reason <chr>,
## #   satisfaction <chr>
…
